%YAML 1.1
%TAG !u! tag:unity3d.com,2011:
--- !u!114 &11400000
MonoBehaviour:
  m_ObjectHideFlags: 0
  m_CorrespondingSourceObject: {fileID: 0}
  m_PrefabInstance: {fileID: 0}
  m_PrefabAsset: {fileID: 0}
  m_GameObject: {fileID: 0}
  m_Enabled: 1
  m_EditorHideFlags: 0
  m_Script: {fileID: 11500000, guid: 557df49610b5c904b854673250eaf592, type: 3}
  m_Name: SOFirestone
  m_EditorClassIdentifier: 
  m_Sprite: {fileID: 21300000, guid: fed1515e4f4e2d148b4a071034cc27ed, type: 3}
  m_itemType: 0
  m_value: 0
  m_Cost: 50
  m_damgeType: 1
